// no need for mutexes because the array is only read from by threads

int main() {
  // fill array
  // ask for number
  for(i=0->4) {
    // create thread, start on thread_function, send i as argument
  }
  // pthread_join's
}

thread_function(i) {
  for(200*i -> 200*(i+1)) {
    // search array[position]
  }
}
